<?xml version="1.0" encoding="UTF-8"?>
<svg width="19px" height="19px" viewBox="0 0 19 19" version="1.1" xmlns="http://www.w3.org/2000/svg" xmlns:xlink="http://www.w3.org/1999/xlink">
    <!-- Generator: Sketch 59 (86127) - https://sketch.com -->
    <title>Plus</title>
    <desc>Created with Sketch.</desc>
    <g id="final" stroke="none" stroke-width="1" fill="none" fill-rule="evenodd">
        <path d="M16.7647857,7.23809524 L11.7619048,7.23809524 L11.7619048,2.23521429 C11.7619048,1.00609524 10.7295714,0 9.5,0 C8.27042857,0 7.23809524,1.00609524 7.23809524,2.23521429 L7.23809524,7.23809524 L2.23521429,7.23809524 C1.00609524,7.23809524 0,8.27042857 0,9.5 C0,10.7295714 1.00609524,11.7619048 2.23521429,11.7619048 L7.23809524,11.7619048 L7.23809524,16.7647857 C7.23809524,17.9939048 8.27042857,19 9.5,19 C10.7295714,19 11.7619048,17.9939048 11.7619048,16.7647857 L11.7619048,11.7619048 L16.7647857,11.7619048 C17.9939048,11.7619048 19,10.7295714 19,9.5 C19,8.27042857 17.9939048,7.23809524 16.7647857,7.23809524 Z" id="Plus" fill="#FFFFFF" fill-rule="nonzero"></path>
    </g>
</svg>