<?xml version="1.0" encoding="UTF-8"?>
<svg width="31px" height="16px" viewBox="0 0 31 16" version="1.1" xmlns="http://www.w3.org/2000/svg" xmlns:xlink="http://www.w3.org/1999/xlink">
    <!-- Generator: Sketch 59 (86127) - https://sketch.com -->
    <title>selectAll</title>
    <desc>Created with Sketch.</desc>
    <g id="final" stroke="none" stroke-width="1" fill="none" fill-rule="evenodd">
        <g id="selectAll">
            <g id="Group-18" fill="#4A4A4A" fill-rule="nonzero">
                <g id="iconfinder_Menu2_1031510" transform="translate(12.013793, 7.000000) scale(-1, 1) translate(-12.013793, -7.000000) translate(0.013793, 0.000000)">
                    <path d="M0.748275862,1.875 L23.1965517,1.875 C23.6096,1.875 23.9448276,1.455 23.9448276,0.9375 C23.9448276,0.42 23.6096,0 23.1965517,0 L0.748275862,0 C0.335227586,0 0,0.42 0,0.9375 C0,1.455 0.335227586,1.875 0.748275862,1.875 Z" id="Path"></path>
                    <path d="M23.4375,6 L6.5625,6 C6.252,6 6,6.42 6,6.9375 C6,7.455 6.252,7.875 6.5625,7.875 L23.4375,7.875 C23.748,7.875 24,7.455 24,6.9375 C24,6.42 23.748,6 23.4375,6 Z" id="Path"></path>
                    <path d="M23.3636364,12 L10.6363636,12 C10.2850909,12 10,12.42 10,12.9375 C10,13.455 10.2850909,13.875 10.6363636,13.875 L23.3636364,13.875 C23.7149091,13.875 24,13.455 24,12.9375 C24,12.42 23.7149091,12 23.3636364,12 Z" id="Path"></path>
                </g>
                <path d="M20.0863751,15 C19.6656958,15.0010826 19.2617602,14.8270005 18.9630782,14.5158934 L16.5310345,11.9618406 L17.2834315,11.1772623 L19.7101766,13.7257507 C19.8096661,13.8310916 19.9450953,13.8903443 20.0863751,13.8903443 C20.2276549,13.8903443 20.3630841,13.8310916 20.4625736,13.7257507 L29.247603,4.5 L30,5.28457832 L21.209672,14.5158934 C20.91099,14.8270005 20.5070544,15.0010826 20.0863751,15 Z" id="Path" stroke="#4A4A4A"></path>
            </g>
            <g id="iconfinder_outlined_tick_4280485-(2)" transform="translate(16.000000, 4.000000)"></g>
        </g>
    </g>
</svg>