<svg xmlns="http://www.w3.org/2000/svg" width="116" height="32" viewBox="0 0 116 32">
    <text fill="#FFF" fill-rule="evenodd" font-family="STHeitiSC-Medium, Heiti SC" font-size="40" font-weight="bold" transform="translate(-30 -21)">
        <tspan x="30" y="54">vThink</tspan>
    </text>
</svg>
